[?1h=[?25l[H[2J(B[mtop - 21:52:16 up  2:08,  1 user,  load average: 0,00, 0,00, 0,00(B[m[39;49m(B[m[39;49m[K
Tarefas:(B[m[39;49m[1m 180 (B[m[39;49mtotal,(B[m[39;49m[1m   1 (B[m[39;49mem exec.,(B[m[39;49m[1m 179 (B[m[39;49mdormindo,(B[m[39;49m[1m   0 (B[m[39;49mparado,(B[m[39;49m[1m   0 (B[m[39;49mzumbi(B[m[39;49m(B[m[39;49m[K
%CPU(s):(B[m[39;49m[1m  0,0 (B[m[39;49mus,(B[m[39;49m[1m 13,3 (B[m[39;49msis,(B[m[39;49m[1m  0,0 (B[m[39;49mni,(B[m[39;49m[1m 86,7 (B[m[39;49moc,(B[m[39;49m[1m  0,0 (B[m[39;49mag,(B[m[39;49m[1m  0,0 (B[m[39;49mih,(B[m[39;49m[1m  0,0 (B[m[39;49mis(B[m[39;49m[1m  0,0 (B[m[39;49mtr(B[m[39;49m(B[m[39;49m[K
MB mem :(B[m[39;49m[1m   1978,4 (B[m[39;49mtotal,(B[m[39;49m[1m    510,4 (B[m[39;49mlivre,(B[m[39;49m[1m    738,8 (B[m[39;49musados,(B[m[39;49m[1m    729,3 (B[m[39;49mbuff/cache(B[m[39;49m(B[m[39;49m[K
MB swap:(B[m[39;49m[1m    448,4 (B[m[39;49mtotal,(B[m[39;49m[1m    448,4 (B[m[39;49mlivre,(B[m[39;49m[1m      0,0 (B[m[39;49musados,(B[m[39;49m[1m   1068,3 (B[m[39;49mmem dispon.(B[m[39;49m(B[m[39;49m[K
[K
[7m    PID USUARIO   PR  NI    VIRT    RES    SHR S  %CPU  %MEM    TEMPO+ COMANDO  (B[m[39;49m[K
(B[m    920 jean      20   0 4080848 401940 137688 S   6,7  19,8   2:24.18 gnome-s+ (B[m[39;49m[K
(B[m      1 root      20   0  164544  10940   7900 S   0,0   0,5   0:01.82 systemd  (B[m[39;49m[K
(B[m      2 root      20   0       0      0      0 S   0,0   0,0   0:00.00 kthreadd (B[m[39;49m[K
(B[m      3 root       0 -20       0      0      0 I   0,0   0,0   0:00.00 rcu_gp   (B[m[39;49m[K
(B[m      4 root       0 -20       0      0      0 I   0,0   0,0   0:00.00 rcu_par+ (B[m[39;49m[K
(B[m      6 root       0 -20       0      0      0 I   0,0   0,0   0:00.00 kworker+ (B[m[39;49m[K
(B[m      8 root       0 -20       0      0      0 I   0,0   0,0   0:00.00 mm_perc+ (B[m[39;49m[K
(B[m      9 root      20   0       0      0      0 S   0,0   0,0   0:00.00 rcu_tas+ (B[m[39;49m[K
(B[m     10 root      20   0       0      0      0 S   0,0   0,0   0:00.00 rcu_tas+ (B[m[39;49m[K
(B[m     11 root      20   0       0      0      0 S   0,0   0,0   0:00.17 ksoftir+ (B[m[39;49m[K
(B[m     12 root      20   0       0      0      0 I   0,0   0,0   0:00.60 rcu_sch+ (B[m[39;49m[K
(B[m     13 root      rt   0       0      0      0 S   0,0   0,0   0:00.14 migrati+ (B[m[39;49m[K
(B[m     14 root     -51   0       0      0      0 S   0,0   0,0   0:00.00 idle_in+ (B[m[39;49m[K
(B[m     16 root      20   0       0      0      0 S   0,0   0,0   0:00.00 cpuhp/0  (B[m[39;49m[K
(B[m     17 root      20   0       0      0      0 S   0,0   0,0   0:00.00 kdevtmp+ (B[m[39;49m[K
(B[m     18 root       0 -20       0      0      0 I   0,0   0,0   0:00.00 netns    (B[m[39;49m[K
(B[m     19 root       0 -20       0      0      0 I   0,0   0,0   0:00.00 inet_fr+ (B[m[39;49m[K[?1l>[25;1H
[?12l[?25h[K