total 12K
drwxrwxr-x 2 tales tales 4,0K mai  2 13:22 .
drwxrwxr-x 7 tales tales 4,0K mai  2 13:22 ..
-rwxrwxr-x 1 tales tales  446 mai  2 13:21 atividade2.sh
-rw-rw-r-- 1 tales tales    0 mai  2 13:22 log1.txt
-rw-rw-r-- 1 tales tales    0 mai  2 13:22 log2.txt
